C:\xampp\htdocs\akka\akka-quickstart-java\akka-quickstart-java\src\main\java\com\lightbend\akka\sample\AkkaQuickstart.java
C:\xampp\htdocs\akka\akka-quickstart-java\akka-quickstart-java\src\main\java\com\lightbend\akka\sample\GreeterMain.java
C:\xampp\htdocs\akka\akka-quickstart-java\akka-quickstart-java\src\main\java\com\lightbend\akka\sample\Greeter.java
C:\xampp\htdocs\akka\akka-quickstart-java\akka-quickstart-java\src\main\java\com\lightbend\akka\sample\GreeterBot.java
